PRIME BANK LTD.,Prime CD 1149 /BSBL,,AGRABAD,,,,No
PRIME BANK LTD.,Prime CD 9653 / BSL,,PAHARTALI,,,,No
PRIME BANK LTD.,Prime CD 0624 / BSML,,PAHARTALI,,,,No
PRIME BANK LTD.,Prime CD 0004 / BSML,,BHATIARY,,,,No
JAMUNA BANK LTD.,Jamuna CD 7076 / BSBL,,AGRABAD,,,,No
JAMUNA BANK LTD.,Jamuna CD 13289 / BSBL,,BHATIARY,,,,No
JAMUNA BANK LTD.,Jamuna CC 1065 / BSL,,AGRABAD,,,,No
JAMUNA BANK LTD.,Jamuna CD 5594 / BSL,,AGRABAD,,,,No
JAMUNA BANK LTD.,Jamuna CD 6877 / BSML,,BHATIARY,,,,No
BANK ASIA,Asia OD 0005 / BSBL,,BHATIARY,,,,No
BANK ASIA,Asia STD 0080 / BSBL,,BHATIARY,,,,No
BANK ASIA,Asia CD 1137 / BSL,,BHATIARY,,,,No
AB BANK LTD.,AB CD 7000 / BSBL,,JUBLEE ROAD,,,,No
AB BANK LTD.,AB CD 8000 / BSL,,JUBLEE ROAD,,,,No
DHAKA BANK LTD.,Dhaka CD 6843 / BSBL,,"GEC,CDA",,,,No
SOUTH BANGLA AGRICULTURE AND COMMERCE BANK LTD.,SBAC CD 3936 / BSBL,,BHATIARY,,,,No
SOUTH BANGLA AGRICULTURE AND COMMERCE BANK LTD.,SBAC CC 029 / Banani,,BHATIARY,,,,No
ONE BANK LTD.,ONE CD 3451 / BSL,,SITAKUNDA,,,,No
ONE BANK LTD.,ONE CD 9001 BSBL,,SITAKUNDA,,,,No
NATIONAL BANK LTD,NBL CD 0225 / BSBL,,BHATIARY,,,,No
MARCANTILE BANK LTD.,Marcantile CC 0053,,MADAM BIBIR HAT,,,,No
UNITED COMMERCIAL BANK LTD.,UCB CD 3696 / BSL,,BHATIARY,,,,No